%YAML 1.1
%TAG !u! tag:unity3d.com,2011:
--- !u!1001 &8607204664790083462
PrefabInstance:
  m_ObjectHideFlags: 0
  serializedVersion: 2
  m_Modification:
    m_TransformParent: {fileID: 0}
    m_Modifications:
    - target: {fileID: 6888482224943213164, guid: 67606e25b54378444b4b6c58577ecde4,
        type: 3}
      propertyPath: m_Name
      value: CoalItem Variant
      objectReference: {fileID: 0}
    - target: {fileID: 8283948429077047489, guid: 67606e25b54378444b4b6c58577ecde4,
        type: 3}
      propertyPath: ItemInfo
      value: 
      objectReference: {fileID: 11400000, guid: 2a4d62650b4f75d4492e1e0bc13f4fb3,
        type: 2}
    - target: {fileID: 6888482224943213154, guid: 67606e25b54378444b4b6c58577ecde4,
        type: 3}
      propertyPath: m_LocalPosition.x
      value: -1.996
      objectReference: {fileID: 0}
    - target: {fileID: 6888482224943213154, guid: 67606e25b54378444b4b6c58577ecde4,
        type: 3}
      propertyPath: m_LocalPosition.y
      value: 1.448
      objectReference: {fileID: 0}
    - target: {fileID: 6888482224943213154, guid: 67606e25b54378444b4b6c58577ecde4,
        type: 3}
      propertyPath: m_LocalPosition.z
      value: 0
      objectReference: {fileID: 0}
    - target: {fileID: 6888482224943213154, guid: 67606e25b54378444b4b6c58577ecde4,
        type: 3}
      propertyPath: m_LocalRotation.x
      value: -0
      objectReference: {fileID: 0}
    - target: {fileID: 6888482224943213154, guid: 67606e25b54378444b4b6c58577ecde4,
        type: 3}
      propertyPath: m_LocalRotation.y
      value: -0
      objectReference: {fileID: 0}
    - target: {fileID: 6888482224943213154, guid: 67606e25b54378444b4b6c58577ecde4,
        type: 3}
      propertyPath: m_LocalRotation.z
      value: -0
      objectReference: {fileID: 0}
    - target: {fileID: 6888482224943213154, guid: 67606e25b54378444b4b6c58577ecde4,
        type: 3}
      propertyPath: m_LocalRotation.w
      value: 1
      objectReference: {fileID: 0}
    - target: {fileID: 6888482224943213154, guid: 67606e25b54378444b4b6c58577ecde4,
        type: 3}
      propertyPath: m_RootOrder
      value: 0
      objectReference: {fileID: 0}
    - target: {fileID: 6888482224943213154, guid: 67606e25b54378444b4b6c58577ecde4,
        type: 3}
      propertyPath: m_LocalEulerAnglesHint.x
      value: 0
      objectReference: {fileID: 0}
    - target: {fileID: 6888482224943213154, guid: 67606e25b54378444b4b6c58577ecde4,
        type: 3}
      propertyPath: m_LocalEulerAnglesHint.y
      value: 0
      objectReference: {fileID: 0}
    - target: {fileID: 6888482224943213154, guid: 67606e25b54378444b4b6c58577ecde4,
        type: 3}
      propertyPath: m_LocalEulerAnglesHint.z
      value: 0
      objectReference: {fileID: 0}
    - target: {fileID: 6888482224943213154, guid: 67606e25b54378444b4b6c58577ecde4,
        type: 3}
      propertyPath: m_LocalScale.z
      value: 1
      objectReference: {fileID: 0}
    - target: {fileID: 6888482224943213154, guid: 67606e25b54378444b4b6c58577ecde4,
        type: 3}
      propertyPath: m_LocalScale.x
      value: 0.1
      objectReference: {fileID: 0}
    - target: {fileID: 6888482224943213154, guid: 67606e25b54378444b4b6c58577ecde4,
        type: 3}
      propertyPath: m_LocalScale.y
      value: 0.1
      objectReference: {fileID: 0}
    - target: {fileID: 6888482224943213155, guid: 67606e25b54378444b4b6c58577ecde4,
        type: 3}
      propertyPath: m_Sprite
      value: 
      objectReference: {fileID: 21300002, guid: 78a8a77ef21c3fa4ba2aa5a88bb5b3df,
        type: 3}
    - target: {fileID: 6888482224943213155, guid: 67606e25b54378444b4b6c58577ecde4,
        type: 3}
      propertyPath: m_Size.x
      value: 0.8
      objectReference: {fileID: 0}
    - target: {fileID: 6888482224943213155, guid: 67606e25b54378444b4b6c58577ecde4,
        type: 3}
      propertyPath: m_Size.y
      value: 1.1
      objectReference: {fileID: 0}
    - target: {fileID: 6888482224943213155, guid: 67606e25b54378444b4b6c58577ecde4,
        type: 3}
      propertyPath: m_WasSpriteAssigned
      value: 1
      objectReference: {fileID: 0}
    - target: {fileID: 6334608462881590052, guid: 67606e25b54378444b4b6c58577ecde4,
        type: 3}
      propertyPath: m_SpriteTilingProperty.oldSize.x
      value: 0.8
      objectReference: {fileID: 0}
    - target: {fileID: 6334608462881590052, guid: 67606e25b54378444b4b6c58577ecde4,
        type: 3}
      propertyPath: m_SpriteTilingProperty.oldSize.y
      value: 1.1
      objectReference: {fileID: 0}
    - target: {fileID: 6334608462881590052, guid: 67606e25b54378444b4b6c58577ecde4,
        type: 3}
      propertyPath: m_SpriteTilingProperty.newSize.x
      value: 0.8
      objectReference: {fileID: 0}
    - target: {fileID: 6334608462881590052, guid: 67606e25b54378444b4b6c58577ecde4,
        type: 3}
      propertyPath: m_SpriteTilingProperty.newSize.y
      value: 1.1
      objectReference: {fileID: 0}
    - target: {fileID: 6334608462881590052, guid: 67606e25b54378444b4b6c58577ecde4,
        type: 3}
      propertyPath: m_Offset.x
      value: 0
      objectReference: {fileID: 0}
    - target: {fileID: 6334608462881590052, guid: 67606e25b54378444b4b6c58577ecde4,
        type: 3}
      propertyPath: m_Size.x
      value: 0.80379367
      objectReference: {fileID: 0}
    - target: {fileID: 6334608462881590052, guid: 67606e25b54378444b4b6c58577ecde4,
        type: 3}
      propertyPath: m_Offset.y
      value: 0
      objectReference: {fileID: 0}
    - target: {fileID: 6334608462881590052, guid: 67606e25b54378444b4b6c58577ecde4,
        type: 3}
      propertyPath: m_Size.y
      value: 1.0959208
      objectReference: {fileID: 0}
    m_RemovedComponents: []
  m_SourcePrefab: {fileID: 100100000, guid: 67606e25b54378444b4b6c58577ecde4, type: 3}
