%YAML 1.1
%TAG !u! tag:unity3d.com,2011:
--- !u!1001 &8216594551675663015
PrefabInstance:
  m_ObjectHideFlags: 0
  serializedVersion: 2
  m_Modification:
    m_TransformParent: {fileID: 0}
    m_Modifications:
    - target: {fileID: 6888482224943213164, guid: 67606e25b54378444b4b6c58577ecde4,
        type: 3}
      propertyPath: m_Name
      value: MetalAxe Variant
      objectReference: {fileID: 0}
    - target: {fileID: 8283948429077047489, guid: 67606e25b54378444b4b6c58577ecde4,
        type: 3}
      propertyPath: ItemInfo
      value: 
      objectReference: {fileID: 11400000, guid: c0f266e10a7ce264e8e781f5e8025677,
        type: 2}
    - target: {fileID: 6888482224943213154, guid: 67606e25b54378444b4b6c58577ecde4,
        type: 3}
      propertyPath: m_LocalPosition.x
      value: -1.274
      objectReference: {fileID: 0}
    - target: {fileID: 6888482224943213154, guid: 67606e25b54378444b4b6c58577ecde4,
        type: 3}
      propertyPath: m_LocalPosition.y
      value: 1.322
      objectReference: {fileID: 0}
    - target: {fileID: 6888482224943213154, guid: 67606e25b54378444b4b6c58577ecde4,
        type: 3}
      propertyPath: m_LocalPosition.z
      value: 0
      objectReference: {fileID: 0}
    - target: {fileID: 6888482224943213154, guid: 67606e25b54378444b4b6c58577ecde4,
        type: 3}
      propertyPath: m_LocalRotation.x
      value: -0
      objectReference: {fileID: 0}
    - target: {fileID: 6888482224943213154, guid: 67606e25b54378444b4b6c58577ecde4,
        type: 3}
      propertyPath: m_LocalRotation.y
      value: -0
      objectReference: {fileID: 0}
    - target: {fileID: 6888482224943213154, guid: 67606e25b54378444b4b6c58577ecde4,
        type: 3}
      propertyPath: m_LocalRotation.z
      value: -0
      objectReference: {fileID: 0}
    - target: {fileID: 6888482224943213154, guid: 67606e25b54378444b4b6c58577ecde4,
        type: 3}
      propertyPath: m_LocalRotation.w
      value: 1
      objectReference: {fileID: 0}
    - target: {fileID: 6888482224943213154, guid: 67606e25b54378444b4b6c58577ecde4,
        type: 3}
      propertyPath: m_RootOrder
      value: 0
      objectReference: {fileID: 0}
    - target: {fileID: 6888482224943213154, guid: 67606e25b54378444b4b6c58577ecde4,
        type: 3}
      propertyPath: m_LocalEulerAnglesHint.x
      value: 0
      objectReference: {fileID: 0}
    - target: {fileID: 6888482224943213154, guid: 67606e25b54378444b4b6c58577ecde4,
        type: 3}
      propertyPath: m_LocalEulerAnglesHint.y
      value: 0
      objectReference: {fileID: 0}
    - target: {fileID: 6888482224943213154, guid: 67606e25b54378444b4b6c58577ecde4,
        type: 3}
      propertyPath: m_LocalEulerAnglesHint.z
      value: 0
      objectReference: {fileID: 0}
    - target: {fileID: 6888482224943213154, guid: 67606e25b54378444b4b6c58577ecde4,
        type: 3}
      propertyPath: m_LocalScale.x
      value: 0.07
      objectReference: {fileID: 0}
    - target: {fileID: 6888482224943213154, guid: 67606e25b54378444b4b6c58577ecde4,
        type: 3}
      propertyPath: m_LocalScale.y
      value: 0.07
      objectReference: {fileID: 0}
    - target: {fileID: 6888482224943213155, guid: 67606e25b54378444b4b6c58577ecde4,
        type: 3}
      propertyPath: m_Sprite
      value: 
      objectReference: {fileID: 21300016, guid: 78a8a77ef21c3fa4ba2aa5a88bb5b3df,
        type: 3}
    - target: {fileID: 6888482224943213155, guid: 67606e25b54378444b4b6c58577ecde4,
        type: 3}
      propertyPath: m_Size.x
      value: 4.85
      objectReference: {fileID: 0}
    - target: {fileID: 6888482224943213155, guid: 67606e25b54378444b4b6c58577ecde4,
        type: 3}
      propertyPath: m_Size.y
      value: 4.65
      objectReference: {fileID: 0}
    - target: {fileID: 6888482224943213155, guid: 67606e25b54378444b4b6c58577ecde4,
        type: 3}
      propertyPath: m_WasSpriteAssigned
      value: 1
      objectReference: {fileID: 0}
    - target: {fileID: 6334608462881590052, guid: 67606e25b54378444b4b6c58577ecde4,
        type: 3}
      propertyPath: m_SpriteTilingProperty.oldSize.x
      value: 4.85
      objectReference: {fileID: 0}
    - target: {fileID: 6334608462881590052, guid: 67606e25b54378444b4b6c58577ecde4,
        type: 3}
      propertyPath: m_SpriteTilingProperty.oldSize.y
      value: 4.65
      objectReference: {fileID: 0}
    - target: {fileID: 6334608462881590052, guid: 67606e25b54378444b4b6c58577ecde4,
        type: 3}
      propertyPath: m_SpriteTilingProperty.newSize.x
      value: 4.85
      objectReference: {fileID: 0}
    - target: {fileID: 6334608462881590052, guid: 67606e25b54378444b4b6c58577ecde4,
        type: 3}
      propertyPath: m_SpriteTilingProperty.newSize.y
      value: 4.65
      objectReference: {fileID: 0}
    - target: {fileID: 6334608462881590052, guid: 67606e25b54378444b4b6c58577ecde4,
        type: 3}
      propertyPath: m_Offset.y
      value: -0.0072048903
      objectReference: {fileID: 0}
    - target: {fileID: 6334608462881590052, guid: 67606e25b54378444b4b6c58577ecde4,
        type: 3}
      propertyPath: m_Size.y
      value: 4.67414
      objectReference: {fileID: 0}
    - target: {fileID: 6334608462881590052, guid: 67606e25b54378444b4b6c58577ecde4,
        type: 3}
      propertyPath: m_Offset.x
      value: -0.007203102
      objectReference: {fileID: 0}
    - target: {fileID: 6334608462881590052, guid: 67606e25b54378444b4b6c58577ecde4,
        type: 3}
      propertyPath: m_Size.x
      value: 4.818223
      objectReference: {fileID: 0}
    m_RemovedComponents: []
  m_SourcePrefab: {fileID: 100100000, guid: 67606e25b54378444b4b6c58577ecde4, type: 3}
