%YAML 1.1
%TAG !u! tag:unity3d.com,2011:
--- !u!1001 &2902933355993120657
PrefabInstance:
  m_ObjectHideFlags: 0
  serializedVersion: 2
  m_Modification:
    m_TransformParent: {fileID: 0}
    m_Modifications:
    - target: {fileID: 7217726069216812538, guid: 7d0e090ae909ea348900ed4130ad8f18,
        type: 3}
      propertyPath: m_Name
      value: CoalRock1 Variant
      objectReference: {fileID: 0}
    - target: {fileID: 7217726069216812539, guid: 7d0e090ae909ea348900ed4130ad8f18,
        type: 3}
      propertyPath: m_LocalPosition.x
      value: -1.637
      objectReference: {fileID: 0}
    - target: {fileID: 7217726069216812539, guid: 7d0e090ae909ea348900ed4130ad8f18,
        type: 3}
      propertyPath: m_LocalPosition.y
      value: 1.22
      objectReference: {fileID: 0}
    - target: {fileID: 7217726069216812539, guid: 7d0e090ae909ea348900ed4130ad8f18,
        type: 3}
      propertyPath: m_LocalPosition.z
      value: 0
      objectReference: {fileID: 0}
    - target: {fileID: 7217726069216812539, guid: 7d0e090ae909ea348900ed4130ad8f18,
        type: 3}
      propertyPath: m_LocalRotation.x
      value: -0
      objectReference: {fileID: 0}
    - target: {fileID: 7217726069216812539, guid: 7d0e090ae909ea348900ed4130ad8f18,
        type: 3}
      propertyPath: m_LocalRotation.y
      value: -0
      objectReference: {fileID: 0}
    - target: {fileID: 7217726069216812539, guid: 7d0e090ae909ea348900ed4130ad8f18,
        type: 3}
      propertyPath: m_LocalRotation.z
      value: -0
      objectReference: {fileID: 0}
    - target: {fileID: 7217726069216812539, guid: 7d0e090ae909ea348900ed4130ad8f18,
        type: 3}
      propertyPath: m_LocalRotation.w
      value: 1
      objectReference: {fileID: 0}
    - target: {fileID: 7217726069216812539, guid: 7d0e090ae909ea348900ed4130ad8f18,
        type: 3}
      propertyPath: m_RootOrder
      value: 0
      objectReference: {fileID: 0}
    - target: {fileID: 7217726069216812539, guid: 7d0e090ae909ea348900ed4130ad8f18,
        type: 3}
      propertyPath: m_LocalEulerAnglesHint.x
      value: 0
      objectReference: {fileID: 0}
    - target: {fileID: 7217726069216812539, guid: 7d0e090ae909ea348900ed4130ad8f18,
        type: 3}
      propertyPath: m_LocalEulerAnglesHint.y
      value: 0
      objectReference: {fileID: 0}
    - target: {fileID: 7217726069216812539, guid: 7d0e090ae909ea348900ed4130ad8f18,
        type: 3}
      propertyPath: m_LocalEulerAnglesHint.z
      value: 0
      objectReference: {fileID: 0}
    - target: {fileID: 7217726069216812539, guid: 7d0e090ae909ea348900ed4130ad8f18,
        type: 3}
      propertyPath: m_LocalScale.x
      value: 0.2
      objectReference: {fileID: 0}
    - target: {fileID: 7217726069216812539, guid: 7d0e090ae909ea348900ed4130ad8f18,
        type: 3}
      propertyPath: m_LocalScale.y
      value: 0.2
      objectReference: {fileID: 0}
    - target: {fileID: 7217726069216812539, guid: 7d0e090ae909ea348900ed4130ad8f18,
        type: 3}
      propertyPath: m_LocalScale.z
      value: 0.2
      objectReference: {fileID: 0}
    - target: {fileID: 7217726069216812535, guid: 7d0e090ae909ea348900ed4130ad8f18,
        type: 3}
      propertyPath: ChoppableItems.Array.size
      value: 2
      objectReference: {fileID: 0}
    - target: {fileID: 7217726069216812535, guid: 7d0e090ae909ea348900ed4130ad8f18,
        type: 3}
      propertyPath: ChoppableItems.Array.data[0].Item
      value: 
      objectReference: {fileID: 2628000491971419916, guid: 765f544411406064bb3ee17850f962d3,
        type: 3}
    - target: {fileID: 7217726069216812535, guid: 7d0e090ae909ea348900ed4130ad8f18,
        type: 3}
      propertyPath: ChoppableItems.Array.data[0].EnsuredCount
      value: 3
      objectReference: {fileID: 0}
    - target: {fileID: 7217726069216812535, guid: 7d0e090ae909ea348900ed4130ad8f18,
        type: 3}
      propertyPath: ChoppableItems.Array.data[0].Probability
      value: 0.15
      objectReference: {fileID: 0}
    - target: {fileID: 7217726069216812535, guid: 7d0e090ae909ea348900ed4130ad8f18,
        type: 3}
      propertyPath: ChoppableItems.Array.data[0].ProbableCount
      value: 4
      objectReference: {fileID: 0}
    - target: {fileID: 7217726069216812535, guid: 7d0e090ae909ea348900ed4130ad8f18,
        type: 3}
      propertyPath: ChoppableItems.Array.data[1].Item
      value: 
      objectReference: {fileID: 2948205310523788778, guid: 58086a95e2aaa304294d3c80804d20df,
        type: 3}
    - target: {fileID: 7217726069216812535, guid: 7d0e090ae909ea348900ed4130ad8f18,
        type: 3}
      propertyPath: ChoppableItems.Array.data[1].Probability
      value: 0.4
      objectReference: {fileID: 0}
    - target: {fileID: 7217726069216812535, guid: 7d0e090ae909ea348900ed4130ad8f18,
        type: 3}
      propertyPath: ChoppableItems.Array.data[1].ProbableCount
      value: 4
      objectReference: {fileID: 0}
    - target: {fileID: 7217726069216812535, guid: 7d0e090ae909ea348900ed4130ad8f18,
        type: 3}
      propertyPath: ChoppableType
      value: 1
      objectReference: {fileID: 0}
    - target: {fileID: 7217726069216812534, guid: 7d0e090ae909ea348900ed4130ad8f18,
        type: 3}
      propertyPath: m_Offset.y
      value: 1.5709693
      objectReference: {fileID: 0}
    - target: {fileID: 7217726069216812534, guid: 7d0e090ae909ea348900ed4130ad8f18,
        type: 3}
      propertyPath: m_SpriteTilingProperty.pivot.x
      value: 0.5
      objectReference: {fileID: 0}
    - target: {fileID: 7217726069216812534, guid: 7d0e090ae909ea348900ed4130ad8f18,
        type: 3}
      propertyPath: m_SpriteTilingProperty.oldSize.x
      value: 2.93
      objectReference: {fileID: 0}
    - target: {fileID: 7217726069216812534, guid: 7d0e090ae909ea348900ed4130ad8f18,
        type: 3}
      propertyPath: m_SpriteTilingProperty.oldSize.y
      value: 3.04
      objectReference: {fileID: 0}
    - target: {fileID: 7217726069216812534, guid: 7d0e090ae909ea348900ed4130ad8f18,
        type: 3}
      propertyPath: m_SpriteTilingProperty.newSize.x
      value: 2.93
      objectReference: {fileID: 0}
    - target: {fileID: 7217726069216812534, guid: 7d0e090ae909ea348900ed4130ad8f18,
        type: 3}
      propertyPath: m_SpriteTilingProperty.newSize.y
      value: 3.32
      objectReference: {fileID: 0}
    - target: {fileID: 7217726069216812534, guid: 7d0e090ae909ea348900ed4130ad8f18,
        type: 3}
      propertyPath: m_SpriteTilingProperty.adaptiveTilingThreshold
      value: 0.5
      objectReference: {fileID: 0}
    - target: {fileID: 7217726069216812534, guid: 7d0e090ae909ea348900ed4130ad8f18,
        type: 3}
      propertyPath: m_Size.y
      value: 2.9856915
      objectReference: {fileID: 0}
    - target: {fileID: 7217726069216812534, guid: 7d0e090ae909ea348900ed4130ad8f18,
        type: 3}
      propertyPath: m_Offset.x
      value: -0.0111938715
      objectReference: {fileID: 0}
    - target: {fileID: 7217726069216812534, guid: 7d0e090ae909ea348900ed4130ad8f18,
        type: 3}
      propertyPath: m_Size.x
      value: 2.992462
      objectReference: {fileID: 0}
    - target: {fileID: 7217726069216812532, guid: 7d0e090ae909ea348900ed4130ad8f18,
        type: 3}
      propertyPath: m_Sprite
      value: 
      objectReference: {fileID: 21300008, guid: 8903f181bb9820e4da8f9ad8dff93430,
        type: 3}
    - target: {fileID: 7217726069216812532, guid: 7d0e090ae909ea348900ed4130ad8f18,
        type: 3}
      propertyPath: m_Size.x
      value: 2.93
      objectReference: {fileID: 0}
    - target: {fileID: 7217726069216812532, guid: 7d0e090ae909ea348900ed4130ad8f18,
        type: 3}
      propertyPath: m_Size.y
      value: 3.32
      objectReference: {fileID: 0}
    - target: {fileID: 7217726069216812532, guid: 7d0e090ae909ea348900ed4130ad8f18,
        type: 3}
      propertyPath: m_WasSpriteAssigned
      value: 1
      objectReference: {fileID: 0}
    - target: {fileID: 1147122970436368374, guid: 7d0e090ae909ea348900ed4130ad8f18,
        type: 3}
      propertyPath: m_Offset.x
      value: -0.020694256
      objectReference: {fileID: 0}
    - target: {fileID: 1147122970436368374, guid: 7d0e090ae909ea348900ed4130ad8f18,
        type: 3}
      propertyPath: m_SpriteTilingProperty.pivot.x
      value: 0.5
      objectReference: {fileID: 0}
    - target: {fileID: 1147122970436368374, guid: 7d0e090ae909ea348900ed4130ad8f18,
        type: 3}
      propertyPath: m_SpriteTilingProperty.oldSize.x
      value: 2.93
      objectReference: {fileID: 0}
    - target: {fileID: 1147122970436368374, guid: 7d0e090ae909ea348900ed4130ad8f18,
        type: 3}
      propertyPath: m_SpriteTilingProperty.oldSize.y
      value: 3.04
      objectReference: {fileID: 0}
    - target: {fileID: 1147122970436368374, guid: 7d0e090ae909ea348900ed4130ad8f18,
        type: 3}
      propertyPath: m_SpriteTilingProperty.newSize.x
      value: 2.93
      objectReference: {fileID: 0}
    - target: {fileID: 1147122970436368374, guid: 7d0e090ae909ea348900ed4130ad8f18,
        type: 3}
      propertyPath: m_SpriteTilingProperty.newSize.y
      value: 3.32
      objectReference: {fileID: 0}
    - target: {fileID: 1147122970436368374, guid: 7d0e090ae909ea348900ed4130ad8f18,
        type: 3}
      propertyPath: m_SpriteTilingProperty.adaptiveTilingThreshold
      value: 0.5
      objectReference: {fileID: 0}
    - target: {fileID: 1147122970436368374, guid: 7d0e090ae909ea348900ed4130ad8f18,
        type: 3}
      propertyPath: m_Size.x
      value: 2.9452128
      objectReference: {fileID: 0}
    - target: {fileID: 1147122970436368374, guid: 7d0e090ae909ea348900ed4130ad8f18,
        type: 3}
      propertyPath: m_Offset.y
      value: 0.24832499
      objectReference: {fileID: 0}
    - target: {fileID: 1147122970436368374, guid: 7d0e090ae909ea348900ed4130ad8f18,
        type: 3}
      propertyPath: m_Size.y
      value: 0.50335
      objectReference: {fileID: 0}
    m_RemovedComponents: []
  m_SourcePrefab: {fileID: 100100000, guid: 7d0e090ae909ea348900ed4130ad8f18, type: 3}
