%YAML 1.1
%TAG !u! tag:unity3d.com,2011:
--- !u!114 &11400000
MonoBehaviour:
  m_ObjectHideFlags: 0
  m_CorrespondingSourceObject: {fileID: 0}
  m_PrefabInstance: {fileID: 0}
  m_PrefabAsset: {fileID: 0}
  m_GameObject: {fileID: 0}
  m_Enabled: 1
  m_EditorHideFlags: 0
  m_Script: {fileID: 11500000, guid: eb986184edc59d54888ed8a9f63d9a7c, type: 3}
  m_Name: Metal Pickaxe
  m_EditorClassIdentifier: 
  ItemId: 10
  Prefab: {fileID: 8070114263066577543, guid: 54512869cd76cd042bf00329b7fa29c3, type: 3}
  Name: "\u0416\u0435\u043B\u0435\u0437\u043D\u0430\u044F \u041A\u0438\u0440\u043A\u0430"
  ItemIcon: {fileID: 21300018, guid: 78a8a77ef21c3fa4ba2aa5a88bb5b3df, type: 3}
  Tags:
    IsFuel: 0
    Placeable: 0
    NotPickUppable: 0
    Pickaxe: 1
    Axe: 0
