%YAML 1.1
%TAG !u! tag:unity3d.com,2011:
--- !u!114 &11400000
MonoBehaviour:
  m_ObjectHideFlags: 0
  m_CorrespondingSourceObject: {fileID: 0}
  m_PrefabInstance: {fileID: 0}
  m_PrefabAsset: {fileID: 0}
  m_GameObject: {fileID: 0}
  m_Enabled: 1
  m_EditorHideFlags: 0
  m_Script: {fileID: 11500000, guid: eb986184edc59d54888ed8a9f63d9a7c, type: 3}
  m_Name: Stone Pickaxe
  m_EditorClassIdentifier: 
  ItemId: 8
  Prefab: {fileID: 6666006941727589037, guid: d0806df9b166e43468ec89e326a5a0dd, type: 3}
  Name: "\u041A\u0430\u043C\u0435\u043D\u043D\u0430\u044F \u041A\u0438\u0440\u043A\u0430"
  ItemIcon: {fileID: 21300014, guid: 78a8a77ef21c3fa4ba2aa5a88bb5b3df, type: 3}
  Tags:
    IsFuel: 0
    Placeable: 0
    NotPickUppable: 0
    Pickaxe: 1
    Axe: 0
